{
  "project_info": {
    "project_number": "592177126748",
    "firebase_url": "https://aplikasi-d291a-default-rtdb.asia-southeast1.firebasedatabase.app",
    "project_id": "aplikasi-d291a",
    "storage_bucket": "aplikasi-d291a.appspot.com"
  },
  "client": [
    {
      "client_info": {
        "mobilesdk_app_id": "1:592177126748:android:36f9761eaeb75cb44cb599",
        "android_client_info": {
          "package_name": "com.aplikasi"
        }
      },
      "oauth_client": [
        {
          "client_id": "592177126748-g2hqa2ostpfgf2e9siipe2g24ue5r0qd.apps.googleusercontent.com",
          "client_type": 1,
          "android_info": {
            "package_name": "com.aplikasi",
            "certificate_hash": "5e8f16062ea3cd2c4a0d547876baa6f38cabf625"
          }
        },
        {
          "client_id": "592177126748-vpbgfpl3e34l6vurge0dg5u3msft4870.apps.googleusercontent.com",
          "client_type": 3
        }
      ],
      "api_key": [
        {
          "current_key": "AIzaSyBbsoxML1GTOaXWU-CuuD4yORm6WGNDULs"
        }
      ],
      "services": {
        "appinvite_service": {
          "other_platform_oauth_client": [
            {
              "client_id": "592177126748-vpbgfpl3e34l6vurge0dg5u3msft4870.apps.googleusercontent.com",
              "client_type": 3
            }
          ]
        }
      }
    }
  ],
  "configuration_version": "1"
}